[
    {
        "_id": "b-01",
        "_parentId": "a-05",
        "_type": "block",
        "_classes": "",
        "title": "b-01",
        "displayTitle": "",
        "body": "",
        "_trackingId": 0
    },
    {
        "_id": "b-02",
        "_parentId": "a-05",
        "_type": "block",
        "_classes": "",
        "title": "b-02",
        "displayTitle": "",
        "body": "",
        "_trackingId": 1
    },
    {
        "_id": "b-03",
        "_parentId": "a-05",
        "_type": "block",
        "_classes": "",
        "title": "b-03",
        "displayTitle": "",
        "body": "",
        "_trackingId": 2
    },
    {
        "_id": "b-04",
        "_parentId": "a-05",
        "_type": "block",
        "_classes": "",
        "title": "b-04",
        "displayTitle": "",
        "body": "",
        "_trackingId": 3
    },
    {
        "_id": "b-05",
        "_parentId": "a-05",
        "_type": "block",
        "_classes": "",
        "title": "b-05",
        "displayTitle": "",
        "body": "",
        "_trackingId": 4
    },
    {
        "_id": "b-08",
        "_parentId": "a-05",
        "_type": "block",
        "_classes": "",
        "title": "b-08",
        "displayTitle": "",
        "body": "",
        "_trackingId": 5
    },
    {
        "_id": "b-09",
        "_parentId": "a-05",
        "_type": "block",
        "_classes": "",
        "title": "b-09",
        "displayTitle": "",
        "body": "",
        "_trackingId": 6
    },
    {
        "_id": "b-11",
        "_parentId": "a-05",
        "_type": "block",
        "_classes": "",
        "title": "b-11",
        "displayTitle": "",
        "body": "",
        "_trackingId": 7
    },
    {
        "_id": "b-12",
        "_parentId": "a-05",
        "_type": "block",
        "_classes": "",
        "title": "b-12",
        "displayTitle": "",
        "body": "",
        "_trackingId": 8
    },
    {
        "_id": "b-15",
        "_parentId": "a-05",
        "_type": "block",
        "_classes": "",
        "title": "b-15",
        "displayTitle": "",
        "body": "",
        "_trackingId": 9
    },
    {
        "_id": "b-16",
        "_parentId": "a-05",
        "_type": "block",
        "_classes": "",
        "title": "b-16",
        "displayTitle": "",
        "body": "",
        "_trackingId": 10
    },
    {
        "_id": "b-17",
        "_parentId": "a-05",
        "_type": "block",
        "_classes": "",
        "title": "b-17",
        "displayTitle": "",
        "body": "",
        "_trackingId": 11
    },
    {
        "_id": "b-18",
        "_parentId": "a-05",
        "_type": "block",
        "_classes": "",
        "title": "b-18",
        "displayTitle": "",
        "body": "",
        "_trackingId": 12
    },
    {
        "_id": "b-19",
        "_parentId": "a-05",
        "_type": "block",
        "_classes": "",
        "title": "b-19",
        "displayTitle": "",
        "body": "",
        "_trackingId": 13
    },
    {
        "_id": "b-22",
        "_parentId": "a-05",
        "_type": "block",
        "_classes": "",
        "title": "b-22",
        "displayTitle": "",
        "body": "",
        "_trackingId": 14
    },
    {
        "_id": "b-23",
        "_parentId": "a-05",
        "_type": "block",
        "_classes": "",
        "title": "b-23",
        "displayTitle": "",
        "body": "",
        "_trackingId": 15
    },
    {
        "_id": "b-24",
        "_parentId": "a-05",
        "_type": "block",
        "_classes": "",
        "title": "b-24",
        "displayTitle": "",
        "body": "",
        "_trackingId": 16
    },
    {
        "_id": "b-25",
        "_parentId": "a-05",
        "_type": "block",
        "_classes": "",
        "title": "b-25",
        "displayTitle": "",
        "body": "",
        "_trackingId": 17
    },
    {
        "_id": "b-26",
        "_parentId": "a-05",
        "_type": "block",
        "_classes": "",
        "title": "b-26",
        "displayTitle": "",
        "body": "",
        "_trackingId": 18
    },
    {
        "_id": "b-28",
        "_parentId": "a-05",
        "_type": "block",
        "_classes": "",
        "title": "b-28",
        "displayTitle": "",
        "body": "",
        "_trackingId": 19
    },
    {
        "_id": "b-29",
        "_parentId": "a-05",
        "_type": "block",
        "_classes": "",
        "title": "b-29",
        "displayTitle": "",
        "body": "",
        "_trackingId": 20
    },
    {
        "_id": "b-30",
        "_parentId": "a-05",
        "_type": "block",
        "_classes": "",
        "title": "b-30",
        "displayTitle": "",
        "body": "",
        "_trackingId": 21
    },
    {
        "_id": "b-31",
        "_parentId": "a-05",
        "_type": "block",
        "_classes": "",
        "title": "b-31",
        "displayTitle": "",
        "body": "",
        "_trackingId": 22
    },
    {
        "_id": "b-33",
        "_parentId": "a-05",
        "_type": "block",
        "_classes": "",
        "title": "b-33",
        "displayTitle": "",
        "body": "",
        "_trackingId": 23
    },
    {
        "_id": "b-34",
        "_parentId": "a-05",
        "_type": "block",
        "_classes": "",
        "title": "b-34",
        "displayTitle": "",
        "body": "",
        "_trackingId": 24
    },
    {
        "_id": "b-36",
        "_parentId": "a-05",
        "_type": "block",
        "_classes": "",
        "title": "b-36",
        "displayTitle": "",
        "body": "",
        "_trackingId": 25
    },
    {
        "_id": "b-38",
        "_parentId": "a-05",
        "_type": "block",
        "_classes": "",
        "title": "b-38",
        "displayTitle": "",
        "body": "",
        "_trackingId": 26
    },
    {
        "_id": "b-39",
        "_parentId": "a-05",
        "_type": "block",
        "_classes": "",
        "title": "b-39",
        "displayTitle": "",
        "body": "",
        "_trackingId": 27
    },
    {
        "_id": "b-40",
        "_parentId": "a-05",
        "_type": "block",
        "_classes": "",
        "title": "b-40",
        "displayTitle": "",
        "body": "",
        "_trackingId": 28
    },
    {
        "_id": "b-41",
        "_parentId": "a-05",
        "_type": "block",
        "_classes": "",
        "title": "b-41",
        "displayTitle": "",
        "body": "",
        "_trackingId": 29
    },
    {
        "_id": "b-42",
        "_parentId": "a-05",
        "_type": "block",
        "_classes": "",
        "title": "b-42",
        "displayTitle": "",
        "body": "",
        "_trackingId": 30
    },
    {
        "_id": "b-43",
        "_parentId": "a-05",
        "_type": "block",
        "_classes": "",
        "title": "b-43",
        "displayTitle": "",
        "body": "",
        "_trackingId": 31
    },
    {
        "_id": "b-45",
        "_parentId": "a-05",
        "_type": "block",
        "_classes": "",
        "title": "b-45",
        "displayTitle": "",
        "body": "",
        "_trackingId": 32
    },
    {
        "_id": "b-46",
        "_parentId": "a-05",
        "_type": "block",
        "_classes": "",
        "title": "b-46",
        "displayTitle": "",
        "body": "",
        "_trackingId": 33
    },
    {
        "_id": "b-50",
        "_parentId": "a-05",
        "_type": "block",
        "_classes": "",
        "title": "b-50",
        "displayTitle": "",
        "body": "",
        "_trackingId": 34
    },
    {
        "_id": "b-51",
        "_parentId": "a-05",
        "_type": "block",
        "_classes": "",
        "title": "b-51",
        "displayTitle": "",
        "body": "",
        "_trackingId": 35
    },
    {
        "_id": "b-52",
        "_parentId": "a-05",
        "_type": "block",
        "_classes": "",
        "title": "b-51",
        "displayTitle": "",
        "body": "",
        "_trackingId": 36
    },
    {
        "_id": "b-53",
        "_parentId": "a-05",
        "_type": "block",
        "_classes": "",
        "title": "b-53",
        "displayTitle": "",
        "body": "",
        "_trackingId": 37
    },
    {
        "_id": "b-54",
        "_parentId": "a-05",
        "_type": "block",
        "_classes": "",
        "title": "b-54",
        "displayTitle": "",
        "body": "",
        "_trackingId": 38
    },
    {
        "_id": "b-55",
        "_parentId": "a-05",
        "_type": "block",
        "_classes": "",
        "title": "b-55",
        "displayTitle": "",
        "body": "",
        "_trackingId": 39
    },
    {
        "_id": "b-56",
        "_parentId": "a-05",
        "_type": "block",
        "_classes": "",
        "title": "b-56",
        "displayTitle": "",
        "body": "",
        "_trackingId": 40
    },
    {
        "_id": "b-57",
        "_parentId": "a-05",
        "_type": "block",
        "_classes": "",
        "title": "b-57",
        "displayTitle": "",
        "body": "",
        "_trackingId": 41
    },
    {
        "_id": "b-58",
        "_parentId": "a-05",
        "_type": "block",
        "_classes": "",
        "title": "b-58",
        "displayTitle": "",
        "body": "",
        "_trackingId": 42
    },
    {
        "_id": "b-59",
        "_parentId": "a-05",
        "_type": "block",
        "_classes": "",
        "title": "b-59",
        "displayTitle": "",
        "body": "",
        "_trackingId": 43
    },
    {
        "_id": "b-60",
        "_parentId": "a-05",
        "_type": "block",
        "_classes": "",
        "title": "b-60",
        "displayTitle": "",
        "body": "",
        "_trackingId": 44
    },
    {
        "_id": "b-61",
        "_parentId": "a-05",
        "_type": "block",
        "_classes": "",
        "title": "b-61",
        "displayTitle": "",
        "body": "",
        "_trackingId": 45
    },
    {
        "_id": "b-62",
        "_parentId": "a-05",
        "_type": "block",
        "_classes": "",
        "title": "b-62",
        "displayTitle": "",
        "body": "",
        "_trackingId": 46
    }
]